…
# Problem 2

``` r
homocide_data = read_csv("data-homicides-master/homicide-data.csv", show_col_types = FALSE)
homocide_data
```

    ## # A tibble: 52,179 × 12
    ##   uid    repor…¹ victi…² victi…³ victi…⁴ victi…⁵ victi…⁶ city  state   lat   lon
    ##   <chr>    <dbl> <chr>   <chr>   <chr>   <chr>   <chr>   <chr> <chr> <dbl> <dbl>
    ## 1 Alb-0…  2.01e7 GARCIA  JUAN    Hispan… 78      Male    Albu… NM     35.1 -107.
    ## 2 Alb-0…  2.01e7 MONTOYA CAMERON Hispan… 17      Male    Albu… NM     35.1 -107.
    ## 3 Alb-0…  2.01e7 SATTER… VIVIANA White   15      Female  Albu… NM     35.1 -107.
    ## 4 Alb-0…  2.01e7 MENDIO… CARLOS  Hispan… 32      Male    Albu… NM     35.1 -107.
    ## 5 Alb-0…  2.01e7 MULA    VIVIAN  White   72      Female  Albu… NM     35.1 -107.
    ## # … with 52,174 more rows, 1 more variable: disposition <chr>, and abbreviated
    ## #   variable names ¹​reported_date, ²​victim_last, ³​victim_first, ⁴​victim_race,
    ## #   ⁵​victim_age, ⁶​victim_sex
…
